[
  {
    "_id": "jvs.prd.api.dropped.metrics",
    "_type": "search",
    "_source": {
      "title": "jvs.prd.api.dropped.metrics",
      "description": "",
      "hits": 0,
      "columns": [
        "_source"
      ],
      "sort": [
        "@timestamp",
        "desc"
      ],
      "version": 1,
      "kibanaSavedObjectMeta": {
        "searchSourceJSON": "{\"index\":\"logs_unicorn_jira_prd_*\",\"query\":{\"query_string\":{\"query\":\"+location.class.raw:\\\"com.atlassian.jira.issue.search.vsearch.DualSearchExecutor\\\" +message:\\\"queue is full\\\"\",\"analyze_wildcard\":true}},\"filter\":[],\"highlight\":{\"pre_tags\":[\"@kibana-highlighted-field@\"],\"post_tags\":[\"@/kibana-highlighted-field@\"],\"fields\":{\"*\":{}},\"require_field_match\":false,\"fragment_size\":2147483647}}"
      }
    }
  },
  {
    "_id": "jvs.prd.api.errors.vdualsearchprovider",
    "_type": "search",
    "_source": {
      "title": "jvs.prd.api.errors.vdualsearchprovider",
      "description": "",
      "hits": 0,
      "columns": [
        "_source"
      ],
      "sort": [
        "@timestamp",
        "desc"
      ],
      "version": 1,
      "kibanaSavedObjectMeta": {
        "searchSourceJSON": "{\"index\":\"logs_unicorn_jira_prd_*\",\"query\":{\"query_string\":{\"query\":\"+location.class.raw:\\\"com.atlassian.jira.issue.search.vsearch.VDualSearchProvider\\\" level:ERROR OR level:WARN\",\"analyze_wildcard\":true}},\"filter\":[],\"highlight\":{\"pre_tags\":[\"@kibana-highlighted-field@\"],\"post_tags\":[\"@/kibana-highlighted-field@\"],\"fields\":{\"*\":{}},\"require_field_match\":false,\"fragment_size\":2147483647}}"
      }
    }
  },
  {
    "_id": "jvs.prd.api.indexprimary",
    "_type": "search",
    "_source": {
      "title": "jvs.prd.api.indexprimary",
      "description": "",
      "hits": 0,
      "columns": [
        "_source"
      ],
      "sort": [
        "@timestamp",
        "desc"
      ],
      "version": 1,
      "kibanaSavedObjectMeta": {
        "searchSourceJSON": "{\"index\":\"logs_unicorn_jira_prd_*\",\"query\":{\"query_string\":{\"query\":\"+ext.instrumentation.data.vSearchQuery.name.raw:\\\"com.atlassian.jira.issue.search.vsearch.VDualSearchProvider\\\" +ext.instrumentation.data.vSearchQuery.stats.executions.mode.raw:\\\"INDEX_PRIMARY\\\" +ext.instrumentation.data.vSearchQuery.stats.executions.dbCapable:true\",\"analyze_wildcard\":true}},\"highlight\":{\"pre_tags\":[\"@kibana-highlighted-field@\"],\"post_tags\":[\"@/kibana-highlighted-field@\"],\"fields\":{\"*\":{}},\"require_field_match\":false,\"fragment_size\":2147483647},\"filter\":[]}"
      }
    }
  },
  {
    "_id": "jvs.prd.api.indexprimary.aggregation",
    "_type": "search",
    "_source": {
      "title": "jvs.prd.api.indexprimary.aggregation",
      "description": "",
      "hits": 0,
      "columns": [
        "_source"
      ],
      "sort": [
        "@timestamp",
        "desc"
      ],
      "version": 1,
      "kibanaSavedObjectMeta": {
        "searchSourceJSON": "{\"index\":\"logs_unicorn_jira_prd_*\",\"query\":{\"query_string\":{\"query\":\"+ext.instrumentation.data.vSearchQuery.name.raw:\\\"com.atlassian.jira.issue.search.vsearch.VDualSearchProvider\\\" +ext.instrumentation.data.vSearchQuery.stats.executions.mode.raw:\\\"INDEX_PRIMARY\\\" +ext.instrumentation.data.vSearchQuery.stats.executions.dbCapable:true +ext.instrumentation.data.vSearchQuery.stats.executions.isAggregation:true\",\"analyze_wildcard\":true}},\"highlight\":{\"pre_tags\":[\"@kibana-highlighted-field@\"],\"post_tags\":[\"@/kibana-highlighted-field@\"],\"fields\":{\"*\":{}},\"require_field_match\":false,\"fragment_size\":2147483647},\"filter\":[]}"
      }
    }
  },
  {
    "_id": "jvs.prd.api.indexprimary.aggregation-grouped",
    "_type": "search",
    "_source": {
      "title": "jvs.prd.api.indexprimary.aggregation-grouped",
      "description": "",
      "hits": 0,
      "columns": [
        "_source"
      ],
      "sort": [
        "@timestamp",
        "desc"
      ],
      "version": 1,
      "kibanaSavedObjectMeta": {
        "searchSourceJSON": "{\"index\":\"logs_unicorn_jira_prd_*\",\"query\":{\"query_string\":{\"query\":\"+ext.instrumentation.data.vSearchQuery.name.raw:\\\"com.atlassian.jira.issue.search.vsearch.VDualSearchProvider\\\" +ext.instrumentation.data.vSearchQuery.stats.executions.mode.raw:\\\"INDEX_PRIMARY\\\" +ext.instrumentation.data.vSearchQuery.stats.executions.dbCapable:true +ext.instrumentation.data.vSearchQuery.stats.executions.isAggregation:true -ext.instrumentation.data.vSearchQuery.stats.executions.ungrouped:true\",\"analyze_wildcard\":true}},\"highlight\":{\"pre_tags\":[\"@kibana-highlighted-field@\"],\"post_tags\":[\"@/kibana-highlighted-field@\"],\"fields\":{\"*\":{}},\"require_field_match\":false,\"fragment_size\":2147483647},\"filter\":[]}"
      }
    }
  },
  {
    "_id": "jvs.prd.api.indexprimary.aggregation-ungrouped",
    "_type": "search",
    "_source": {
      "title": "jvs.prd.api.indexprimary.aggregation-ungrouped",
      "description": "",
      "hits": 0,
      "columns": [
        "_source"
      ],
      "sort": [
        "@timestamp",
        "desc"
      ],
      "version": 1,
      "kibanaSavedObjectMeta": {
        "searchSourceJSON": "{\"index\":\"logs_unicorn_jira_prd_*\",\"query\":{\"query_string\":{\"query\":\"+ext.instrumentation.data.vSearchQuery.name.raw:\\\"com.atlassian.jira.issue.search.vsearch.VDualSearchProvider\\\" +ext.instrumentation.data.vSearchQuery.stats.executions.mode.raw:\\\"INDEX_PRIMARY\\\" +ext.instrumentation.data.vSearchQuery.stats.executions.dbCapable:true +ext.instrumentation.data.vSearchQuery.stats.executions.isAggregation:true +ext.instrumentation.data.vSearchQuery.stats.executions.ungrouped:true\",\"analyze_wildcard\":true}},\"highlight\":{\"pre_tags\":[\"@kibana-highlighted-field@\"],\"post_tags\":[\"@/kibana-highlighted-field@\"],\"fields\":{\"*\":{}},\"require_field_match\":false,\"fragment_size\":2147483647},\"filter\":[]}"
      }
    }
  },
  {
    "_id": "jvs.prd.api.indexprimary.all",
    "_type": "search",
    "_source": {
      "title": "jvs.prd.api.indexprimary.all",
      "description": "",
      "hits": 0,
      "columns": [
        "_source"
      ],
      "sort": [
        "@timestamp",
        "desc"
      ],
      "version": 1,
      "kibanaSavedObjectMeta": {
        "searchSourceJSON": "{\"index\":\"logs_unicorn_jira_prd_*\",\"query\":{\"query_string\":{\"query\":\"+ext.instrumentation.data.vSearchQuery.name.raw:\\\"com.atlassian.jira.issue.search.vsearch.VDualSearchProvider\\\" +ext.instrumentation.data.vSearchQuery.stats.executions.mode.raw:\\\"INDEX_PRIMARY\\\"\",\"analyze_wildcard\":true}},\"highlight\":{\"pre_tags\":[\"@kibana-highlighted-field@\"],\"post_tags\":[\"@/kibana-highlighted-field@\"],\"fields\":{\"*\":{}},\"require_field_match\":false,\"fragment_size\":2147483647},\"filter\":[]}"
      }
    }
  },
  {
    "_id": "jvs.prd.api.indexprimary.all.ignore.healthcheck",
    "_type": "search",
    "_source": {
      "title": "jvs.prd.api.indexprimary.all.ignore.healthcheck",
      "description": "",
      "hits": 0,
      "columns": [
        "_source"
      ],
      "sort": [
        "@timestamp",
        "desc"
      ],
      "version": 1,
      "kibanaSavedObjectMeta": {
        "searchSourceJSON": "{\"index\":\"logs_unicorn_jira_prd_*\",\"query\":{\"query_string\":{\"query\":\"+ext.instrumentation.data.vSearchQuery.name.raw:\\\"com.atlassian.jira.issue.search.vsearch.VDualSearchProvider\\\" +ext.instrumentation.data.vSearchQuery.stats.executions.mode.raw:\\\"INDEX_PRIMARY\\\"\",\"analyze_wildcard\":true}},\"highlight\":{\"pre_tags\":[\"@kibana-highlighted-field@\"],\"post_tags\":[\"@/kibana-highlighted-field@\"],\"fields\":{\"*\":{}},\"require_field_match\":false,\"fragment_size\":2147483647},\"filter\":[{\"meta\":{\"negate\":true,\"index\":\"logs_unicorn_jira_prd_*\",\"key\":\"ext.instrumentation.path\",\"value\":\"pool-1-thread-1\",\"disabled\":false,\"alias\":null},\"query\":{\"match\":{\"ext.instrumentation.path\":{\"query\":\"pool-1-thread-1\",\"type\":\"phrase\"}}},\"$state\":{\"store\":\"appState\"}}]}"
      }
    }
  },
  {
    "_id": "jvs.prd.api.indexprimary.collection",
    "_type": "search",
    "_source": {
      "title": "jvs.prd.api.indexprimary.collection",
      "description": "",
      "hits": 0,
      "columns": [
        "_source"
      ],
      "sort": [
        "@timestamp",
        "desc"
      ],
      "version": 1,
      "kibanaSavedObjectMeta": {
        "searchSourceJSON": "{\"index\":\"logs_unicorn_jira_prd_*\",\"query\":{\"query_string\":{\"query\":\"+ext.instrumentation.data.vSearchQuery.name.raw:\\\"com.atlassian.jira.issue.search.vsearch.VDualSearchProvider\\\" +ext.instrumentation.data.vSearchQuery.stats.executions.mode.raw:\\\"INDEX_PRIMARY\\\" +ext.instrumentation.data.vSearchQuery.stats.executions.dbCapable:true +ext.instrumentation.data.vSearchQuery.stats.executions.isCollection:true\",\"analyze_wildcard\":true}},\"highlight\":{\"pre_tags\":[\"@kibana-highlighted-field@\"],\"post_tags\":[\"@/kibana-highlighted-field@\"],\"fields\":{\"*\":{}},\"require_field_match\":false,\"fragment_size\":2147483647},\"filter\":[]}"
      }
    }
  },
  {
    "_id": "jvs.prd.api.indexprimary.delta.nonequiv",
    "_type": "search",
    "_source": {
      "title": "jvs.prd.api.indexprimary.delta.nonequiv",
      "description": "",
      "hits": 0,
      "columns": [
        "_source"
      ],
      "sort": [
        "@timestamp",
        "desc"
      ],
      "version": 1,
      "kibanaSavedObjectMeta": {
        "searchSourceJSON": "{\"index\":\"logs_unicorn_jira_prd_*\",\"query\":{\"query_string\":{\"query\":\"+ext.instrumentation.data.vSearchQuery.name.raw:\\\"com.atlassian.jira.issue.search.vsearch.VDualSearchProvider\\\" +ext.instrumentation.data.vSearchQuery.stats.executions.delta.equiv:0 +ext.instrumentation.data.vSearchQuery.stats.executions.mode.raw:\\\"INDEX_PRIMARY\\\"\",\"analyze_wildcard\":true}},\"highlight\":{\"pre_tags\":[\"@kibana-highlighted-field@\"],\"post_tags\":[\"@/kibana-highlighted-field@\"],\"fields\":{\"*\":{}},\"require_field_match\":false,\"fragment_size\":2147483647},\"filter\":[]}"
      }
    }
  },
  {
    "_id": "jvs.prd.api.indexprimary.delta.results.nonzero",
    "_type": "search",
    "_source": {
      "title": "jvs.prd.api.indexprimary.delta.results.nonzero",
      "description": "",
      "hits": 0,
      "columns": [
        "_source"
      ],
      "sort": [
        "@timestamp",
        "desc"
      ],
      "version": 1,
      "kibanaSavedObjectMeta": {
        "searchSourceJSON": "{\"index\":\"logs_unicorn_jira_prd_*\",\"query\":{\"query_string\":{\"query\":\"+ext.instrumentation.data.vSearchQuery.name.raw:\\\"com.atlassian.jira.issue.search.vsearch.VDualSearchProvider\\\" +ext.instrumentation.data.vSearchQuery.stats.executions.mode.raw:\\\"INDEX_PRIMARY\\\" +ext.instrumentation.data.vSearchQuery.stats.executions.delta.equiv:false\",\"analyze_wildcard\":true}},\"highlight\":{\"pre_tags\":[\"@kibana-highlighted-field@\"],\"post_tags\":[\"@/kibana-highlighted-field@\"],\"fields\":{\"*\":{}},\"require_field_match\":false,\"fragment_size\":2147483647},\"filter\":[]}"
      }
    }
  },
  {
    "_id": "jvs.prd.api.indexprimary.delta.zero",
    "_type": "search",
    "_source": {
      "title": "jvs.prd.api.indexprimary.delta.zero",
      "description": "",
      "hits": 0,
      "columns": [
        "_source"
      ],
      "sort": [
        "@timestamp",
        "desc"
      ],
      "version": 1,
      "kibanaSavedObjectMeta": {
        "searchSourceJSON": "{\"index\":\"logs_unicorn_jira_prd_*\",\"query\":{\"query_string\":{\"query\":\"+ext.instrumentation.data.vSearchQuery.name.raw:\\\"com.atlassian.jira.issue.search.vsearch.VDualSearchProvider\\\" +ext.instrumentation.data.vSearchQuery.stats.executions.mode.raw:\\\"INDEX_PRIMARY\\\" +ext.instrumentation.data.vSearchQuery.stats.executions.delta.equiv:true\",\"analyze_wildcard\":true}},\"filter\":[{\"$state\":{\"store\":\"appState\"},\"meta\":{\"alias\":null,\"disabled\":true,\"index\":\"logs_unicorn_jira_prd_*\",\"key\":\"ext.instrumentation.data.vSearchQuery.stats.executions.collectorClass.raw\",\"negate\":false,\"value\":\"IssueDataCollector\"},\"query\":{\"match\":{\"ext.instrumentation.data.vSearchQuery.stats.executions.collectorClass.raw\":{\"query\":\"IssueDataCollector\",\"type\":\"phrase\"}}}}],\"highlight\":{\"pre_tags\":[\"@kibana-highlighted-field@\"],\"post_tags\":[\"@/kibana-highlighted-field@\"],\"fields\":{\"*\":{}},\"require_field_match\":false,\"fragment_size\":2147483647}}"
      }
    }
  },
  {
    "_id": "jvs.prd.api.indexprimary.delta.zero.index.nonzero",
    "_type": "search",
    "_source": {
      "title": "jvs.prd.api.indexprimary.delta.zero.index.nonzero",
      "description": "",
      "hits": 0,
      "columns": [
        "_source"
      ],
      "sort": [
        "@timestamp",
        "desc"
      ],
      "version": 1,
      "kibanaSavedObjectMeta": {
        "searchSourceJSON": "{\"index\":\"logs_unicorn_jira_prd_*\",\"query\":{\"query_string\":{\"query\":\"+ext.instrumentation.data.vSearchQuery.name.raw:\\\"com.atlassian.jira.issue.search.vsearch.VDualSearchProvider\\\" +ext.instrumentation.data.vSearchQuery.stats.executions.mode.raw:\\\"INDEX_PRIMARY\\\" +ext.instrumentation.data.vSearchQuery.stats.executions.delta.equiv:true -ext.instrumentation.data.vSearchQuery.stats.executions.index.length:0\",\"analyze_wildcard\":true}},\"filter\":[],\"highlight\":{\"pre_tags\":[\"@kibana-highlighted-field@\"],\"post_tags\":[\"@/kibana-highlighted-field@\"],\"fields\":{\"*\":{}},\"require_field_match\":false,\"fragment_size\":2147483647}}"
      }
    }
  },
  {
    "_id": "jvs.prd.api.indexprimary.jdog.text.searches",
    "_type": "search",
    "_source": {
      "title": "jvs.prd.api.indexprimary.jdog.text.searches",
      "description": "",
      "hits": 0,
      "columns": [
        "_source"
      ],
      "sort": [
        "@timestamp",
        "desc"
      ],
      "version": 1,
      "kibanaSavedObjectMeta": {
        "searchSourceJSON": "{\"index\":\"logs_unicorn_jira_prd_*\",\"query\":{\"query_string\":{\"query\":\"+ext.instrumentation.data.vSearchQuery.stats.executions.textQuery:1\",\"analyze_wildcard\":true}},\"highlight\":{\"pre_tags\":[\"@kibana-highlighted-field@\"],\"post_tags\":[\"@/kibana-highlighted-field@\"],\"fields\":{\"*\":{}},\"require_field_match\":false,\"fragment_size\":2147483647},\"filter\":[]}"
      }
    }
  },
  {
    "_id": "jvs.prd.api.indexprimary.jdog.text.searches.db.capable",
    "_type": "search",
    "_source": {
      "title": "jvs.prd.api.indexprimary.jdog.text.searches.db.capable",
      "description": "",
      "hits": 0,
      "columns": [
        "_source"
      ],
      "sort": [
        "@timestamp",
        "desc"
      ],
      "version": 1,
      "kibanaSavedObjectMeta": {
        "searchSourceJSON": "{\"index\":\"logs_unicorn_jira_prd_*\",\"query\":{\"query_string\":{\"query\":\"+ext.instrumentation.data.vSearchQuery.stats.executions.textQuery:true +ext.instrumentation.data.vSearchQuery.stats.executions.dbCapable:true\",\"analyze_wildcard\":true}},\"highlight\":{\"pre_tags\":[\"@kibana-highlighted-field@\"],\"post_tags\":[\"@/kibana-highlighted-field@\"],\"fields\":{\"*\":{}},\"require_field_match\":false,\"fragment_size\":2147483647},\"filter\":[]}"
      }
    }
  },
  {
    "_id": "jvs.prd.api.indexprimary.jdog.text.searches.nonequiv",
    "_type": "search",
    "_source": {
      "title": "jvs.prd.api.indexprimary.jdog.text.searches.nonequiv",
      "description": "",
      "hits": 0,
      "columns": [
        "_source"
      ],
      "sort": [
        "@timestamp",
        "desc"
      ],
      "version": 1,
      "kibanaSavedObjectMeta": {
        "searchSourceJSON": "{\"index\":\"logs_unicorn_jira_prd_*\",\"query\":{\"query_string\":{\"query\":\"+hostname.raw:\\\"jdog.jira-dev.com\\\" +ext.instrumentation.data.vSearchQuery.stats.executions.delta.equiv:0 +ext.instrumentation.data.vSearchQuery.stats.executions.textQuery:1\",\"analyze_wildcard\":true}},\"highlight\":{\"pre_tags\":[\"@kibana-highlighted-field@\"],\"post_tags\":[\"@/kibana-highlighted-field@\"],\"fields\":{\"*\":{}},\"require_field_match\":false,\"fragment_size\":2147483647},\"filter\":[]}"
      }
    }
  },
  {
    "_id": "jvs.prd.api.indexprimary.nodb",
    "_type": "search",
    "_source": {
      "title": "jvs.prd.api.indexprimary.nodb",
      "description": "",
      "hits": 0,
      "columns": [
        "_source"
      ],
      "sort": [
        "@timestamp",
        "desc"
      ],
      "version": 1,
      "kibanaSavedObjectMeta": {
        "searchSourceJSON": "{\"index\":\"logs_unicorn_jira_prd_*\",\"query\":{\"query_string\":{\"query\":\"+ext.instrumentation.data.vSearchQuery.name.raw:\\\"com.atlassian.jira.issue.search.vsearch.VDualSearchProvider\\\" +ext.instrumentation.data.vSearchQuery.stats.executions.mode.raw:\\\"INDEX_PRIMARY\\\" +ext.instrumentation.data.vSearchQuery.stats.executions.dbCapable:false\",\"analyze_wildcard\":true}},\"highlight\":{\"pre_tags\":[\"@kibana-highlighted-field@\"],\"post_tags\":[\"@/kibana-highlighted-field@\"],\"fields\":{\"*\":{}},\"require_field_match\":false,\"fragment_size\":2147483647},\"filter\":[]}"
      }
    }
  }
]
