[
  {
    "_id": "jvs.prd.unified.errors.search.count",
    "_type": "visualization",
    "_source": {
      "title": "jvs.prd.unified.errors.search.count",
      "visState": "{\"title\":\"New Visualization\",\"type\":\"metric\",\"params\":{\"handleNoResults\":true,\"fontSize\":60},\"aggs\":[{\"id\":\"1\",\"type\":\"count\",\"schema\":\"metric\",\"params\":{}}],\"listeners\":{}}",
      "uiStateJSON": "{}",
      "description": "",
      "savedSearchId": "jvs.prd.unified.errors.search",
      "version": 1,
      "kibanaSavedObjectMeta": {
        "searchSourceJSON": "{\"filter\":[]}"
      }
    }
  },
  {
    "_id": "jvs.prd.unified.indexprimary.all.count.total",
    "_type": "visualization",
    "_source": {
      "title": "jvs.prd.unified.indexprimary.all.count.total",
      "visState": "{\"title\":\"New Visualization\",\"type\":\"metric\",\"params\":{\"handleNoResults\":true,\"fontSize\":60},\"aggs\":[{\"id\":\"1\",\"type\":\"count\",\"schema\":\"metric\",\"params\":{\"customLabel\":\"Number of searches\"}}],\"listeners\":{}}",
      "uiStateJSON": "{}",
      "description": "",
      "savedSearchId": "jvs.prd.unified.indexprimary.all",
      "version": 1,
      "kibanaSavedObjectMeta": {
        "searchSourceJSON": "{\"filter\":[]}"
      }
    }
  },
  {
    "_id": "jvs.prd.unified.indexprimary.all.versions",
    "_type": "visualization",
    "_source": {
      "title": "jvs.prd.unified.indexprimary.all.versions",
      "visState": "{\"title\":\"jvs.prd.unified.indexprimary.all.versions\",\"type\":\"table\",\"params\":{\"perPage\":5,\"showPartialRows\":false,\"showMeticsAtAllLevels\":false},\"aggs\":[{\"id\":\"1\",\"type\":\"count\",\"schema\":\"metric\",\"params\":{}},{\"id\":\"2\",\"type\":\"terms\",\"schema\":\"bucket\",\"params\":{\"field\":\"ext.jira.version.raw\",\"size\":50,\"order\":\"desc\",\"orderBy\":\"_term\",\"customLabel\":\"Version\"}}],\"listeners\":{}}",
      "uiStateJSON": "{}",
      "description": "",
      "savedSearchId": "jvs.prd.unified.indexprimary.all",
      "version": 1,
      "kibanaSavedObjectMeta": {
        "searchSourceJSON": "{\"filter\":[]}"
      }
    }
  },
  {
    "_id": "jvs.prd.unified.indexprimary.capability",
    "_type": "visualization",
    "_source": {
      "title": "jvs.prd.unified.indexprimary.capability",
      "visState": "{\"title\":\"jvs.prd.jql.indexprimary.capability\",\"type\":\"histogram\",\"params\":{\"shareYAxis\":true,\"addTooltip\":true,\"addLegend\":true,\"scale\":\"linear\",\"mode\":\"percentage\",\"times\":[],\"addTimeMarker\":false,\"defaultYExtents\":false,\"setYExtents\":false,\"yAxis\":{}},\"aggs\":[{\"id\":\"1\",\"type\":\"count\",\"schema\":\"metric\",\"params\":{}},{\"id\":\"2\",\"type\":\"filters\",\"schema\":\"group\",\"params\":{\"filters\":[{\"input\":{\"query\":{\"query_string\":{\"query\":\"_exists_:ext.instrumentation.data.jqlquery.stats.executions.db.elapsed _exists_:ext.instrumentation.data.vSearchQuery.stats.executions.db.elapsed\",\"analyze_wildcard\":true}}},\"label\":\"DB capable\"},{\"input\":{\"query\":{\"query_string\":{\"query\":\"+_missing_:ext.instrumentation.data.jqlquery.stats.executions.db.elapsed +_missing_:ext.instrumentation.data.vSearchQuery.stats.executions.db.elapsed\",\"analyze_wildcard\":true}}},\"label\":\"Index only\"}]}}],\"listeners\":{}}",
      "uiStateJSON": "{\"vis\":{\"colors\":{\"_exists_:ext.instrumentation.data.jqlquery.stats.executions.db.length\":\"#7EB26D\",\"_missing_:ext.instrumentation.data.jqlquery.stats.executions.db.length\":\"#6ED0E0\",\"DB capable\":\"#7EB26D\",\"Index only\":\"#70DBED\"}}}",
      "description": "",
      "version": 1,
      "kibanaSavedObjectMeta": {
        "searchSourceJSON": "{\"filter\":[],\"index\":\"logs_unicorn_jira_prd_*\",\"query\":{\"query_string\":{\"query\":\"(+ext.instrumentation.data.jqlquery.name.raw:\\\"com.atlassian.jira.issue.search.providers.DualSearchProvider\\\" +ext.instrumentation.data.jqlquery.stats.executions.mode.raw:\\\"INDEX_PRIMARY\\\") OR (+ext.instrumentation.data.vSearchQuery.name.raw:\\\"com.atlassian.jira.issue.search.vsearch.VDualSearchProvider\\\" +ext.instrumentation.data.vSearchQuery.stats.executions.mode.raw:\\\"INDEX_PRIMARY\\\")\",\"analyze_wildcard\":true}},\"highlight\":{\"pre_tags\":[\"@kibana-highlighted-field@\"],\"post_tags\":[\"@/kibana-highlighted-field@\"],\"fields\":{\"*\":{}},\"require_field_match\":false,\"fragment_size\":2147483647}}"
      }
    }
  },
  {
    "_id": "jvs.prd.unified.indexprimary.elapsed.90",
    "_type": "visualization",
    "_source": {
      "title": "jvs.prd.unified.indexprimary.elapsed.90",
      "visState": "{\"title\":\"New Visualization\",\"type\":\"metric\",\"params\":{\"handleNoResults\":true,\"fontSize\":\"42\"},\"aggs\":[{\"id\":\"2\",\"type\":\"percentiles\",\"schema\":\"metric\",\"params\":{\"field\":\"ext.instrumentation.data.jqlquery.stats.executions.index.elapsed\",\"percents\":[90],\"customLabel\":\"LuceneJQL\"}},{\"id\":\"1\",\"type\":\"percentiles\",\"schema\":\"metric\",\"params\":{\"field\":\"ext.instrumentation.data.jqlquery.stats.executions.db.elapsed\",\"percents\":[90],\"customLabel\":\"DBJQL\"}},{\"id\":\"3\",\"type\":\"percentiles\",\"schema\":\"metric\",\"params\":{\"field\":\"ext.instrumentation.data.vSearchQuery.stats.executions.index.elapsed\",\"percents\":[90],\"customLabel\":\"LuceneAPI\"}},{\"id\":\"4\",\"type\":\"percentiles\",\"schema\":\"metric\",\"params\":{\"field\":\"ext.instrumentation.data.vSearchQuery.stats.executions.db.elapsed\",\"percents\":[90],\"customLabel\":\"DBAPI\"}}],\"listeners\":{}}",
      "uiStateJSON": "{}",
      "description": "",
      "savedSearchId": "jvs.prd.unified.indexprimary",
      "version": 1,
      "kibanaSavedObjectMeta": {
        "searchSourceJSON": "{\"filter\":[]}"
      }
    }
  },
  {
    "_id": "jvs.prd.unified.indexprimary.equiv.percentage",
    "_type": "visualization",
    "_source": {
      "title": "jvs.prd.unified.indexprimary.equiv.percentage",
      "visState": "{\"title\":\"jvs.prd.unified.indexprimary.equiv.percentage\",\"type\":\"histogram\",\"params\":{\"shareYAxis\":true,\"addTooltip\":true,\"addLegend\":true,\"scale\":\"linear\",\"mode\":\"percentage\",\"times\":[],\"addTimeMarker\":false,\"defaultYExtents\":false,\"setYExtents\":false,\"yAxis\":{}},\"aggs\":[{\"id\":\"1\",\"type\":\"count\",\"schema\":\"metric\",\"params\":{}},{\"id\":\"2\",\"type\":\"filters\",\"schema\":\"group\",\"params\":{\"filters\":[{\"input\":{\"query\":{\"query_string\":{\"query\":\"ext.instrumentation.data.jqlquery.stats.executions.delta.equiv:1 ext.instrumentation.data.vSearchQuery.stats.executions.delta.equiv:1\",\"analyze_wildcard\":true}}},\"label\":\"equiv\"},{\"input\":{\"query\":{\"query_string\":{\"query\":\"ext.instrumentation.data.jqlquery.stats.executions.delta.equiv:0 ext.instrumentation.data.vSearchQuery.stats.executions.delta.equiv:0\",\"analyze_wildcard\":true}}},\"label\":\"non-equiv\"}]}}],\"listeners\":{}}",
      "uiStateJSON": "{\"vis\":{\"colors\":{\"non-equiv\":\"#EA6460\",\"equiv\":\"#7EB26D\"},\"legendOpen\":false}}",
      "description": "",
      "savedSearchId": "jvs.prd.unified.indexprimary",
      "version": 1,
      "kibanaSavedObjectMeta": {
        "searchSourceJSON": "{\"filter\":[]}"
      }
    }
  },
  {
    "_id": "jvs.prd.unified.indexprimary.hosts.num",
    "_type": "visualization",
    "_source": {
      "title": "jvs.prd.unified.indexprimary.hosts.num",
      "visState": "{\"aggs\":[{\"id\":\"1\",\"params\":{\"customLabel\":\"Number of hosts\",\"field\":\"hostname.raw\"},\"schema\":\"metric\",\"type\":\"cardinality\"}],\"listeners\":{},\"params\":{\"fontSize\":60,\"handleNoResults\":true},\"title\":\"jvs.prd.unified.indexprimary.hosts.num\",\"type\":\"metric\"}",
      "uiStateJSON": "{}",
      "description": "",
      "version": 1,
      "kibanaSavedObjectMeta": {
        "searchSourceJSON": "{\"filter\":[],\"index\":\"logs_unicorn_jira_prd_*\",\"query\":{\"query_string\":{\"query\":\"(+ext.instrumentation.data.jqlquery.name.raw:\\\"com.atlassian.jira.issue.search.providers.DualSearchProvider\\\" +ext.instrumentation.data.jqlquery.stats.executions.mode.raw:\\\"INDEX_PRIMARY\\\") OR (+ext.instrumentation.data.vSearchQuery.name.raw:\\\"com.atlassian.jira.issue.search.vsearch.VDualSearchProvider\\\" +ext.instrumentation.data.vSearchQuery.stats.executions.mode.raw:\\\"INDEX_PRIMARY\\\")\",\"analyze_wildcard\":true}},\"highlight\":{\"pre_tags\":[\"@kibana-highlighted-field@\"],\"post_tags\":[\"@/kibana-highlighted-field@\"],\"fields\":{\"*\":{}},\"require_field_match\":false,\"fragment_size\":2147483647}}"
      }
    }
  }
]
